^C:\USERS\MATTHEW\DOCUMENTS\UNI\YEAR 2\GAMEENGINE\OGRE3D_1-12_BASE\BUILD\SIMPLEGAME.DIR\RELWITHDEBINFO\GAME.OBJ|C:\USERS\MATTHEW\DOCUMENTS\UNI\YEAR 2\GAMEENGINE\OGRE3D_1-12_BASE\BUILD\SIMPLEGAME.DIR\RELWITHDEBINFO\MAIN.OBJ|C:\USERS\MATTHEW\DOCUMENTS\UNI\YEAR 2\GAMEENGINE\OGRE3D_1-12_BASE\BUILD\SIMPLEGAME.DIR\RELWITHDEBINFO\PLAYER.OBJ
C:\USERS\MATTHEW\DOCUMENTS\UNI\YEAR 2\GAMEENGINE\OGRE\BUILD\SDK\LIB\OGREBITES.LIB
C:\USERS\MATTHEW\DOCUMENTS\UNI\YEAR 2\GAMEENGINE\OGRE\BUILD\SDK\LIB\OGREMESHLODGENERATOR.LIB
C:\USERS\MATTHEW\DOCUMENTS\UNI\YEAR 2\GAMEENGINE\OGRE\BUILD\SDK\LIB\OGREPROPERTY.LIB
C:\USERS\MATTHEW\DOCUMENTS\UNI\YEAR 2\GAMEENGINE\OGRE\BUILD\SDK\LIB\OGRERTSHADERSYSTEM.LIB
C:\USERS\MATTHEW\DOCUMENTS\UNI\YEAR 2\GAMEENGINE\OGRE\BUILD\SDK\LIB\OGRETERRAIN.LIB
C:\USERS\MATTHEW\DOCUMENTS\UNI\YEAR 2\GAMEENGINE\OGRE\BUILD\SDK\LIB\OGREVOLUME.LIB
C:\USERS\MATTHEW\DOCUMENTS\UNI\YEAR 2\GAMEENGINE\OGRE\BUILD\SDK\LIB\OGREOVERLAY.LIB
C:\USERS\MATTHEW\DOCUMENTS\UNI\YEAR 2\GAMEENGINE\OGRE\BUILD\SDK\LIB\OGREPAGING.LIB
C:\USERS\MATTHEW\DOCUMENTS\UNI\YEAR 2\GAMEENGINE\OGRE\BUILD\SDK\LIB\OGREMAIN.LIB
C:\PROGRAM FILES (X86)\WINDOWS KITS\10\LIB\10.0.18362.0\UM\X86\KERNEL32.LIB
C:\PROGRAM FILES (X86)\WINDOWS KITS\10\LIB\10.0.18362.0\UM\X86\USER32.LIB
C:\PROGRAM FILES (X86)\WINDOWS KITS\10\LIB\10.0.18362.0\UM\X86\GDI32.LIB
C:\PROGRAM FILES (X86)\WINDOWS KITS\10\LIB\10.0.18362.0\UM\X86\WINSPOOL.LIB
C:\PROGRAM FILES (X86)\WINDOWS KITS\10\LIB\10.0.18362.0\UM\X86\SHELL32.LIB
C:\PROGRAM FILES (X86)\WINDOWS KITS\10\LIB\10.0.18362.0\UM\X86\OLE32.LIB
C:\PROGRAM FILES (X86)\WINDOWS KITS\10\LIB\10.0.18362.0\UM\X86\OLEAUT32.LIB
C:\PROGRAM FILES (X86)\WINDOWS KITS\10\LIB\10.0.18362.0\UM\X86\UUID.LIB
C:\PROGRAM FILES (X86)\WINDOWS KITS\10\LIB\10.0.18362.0\UM\X86\COMDLG32.LIB
C:\PROGRAM FILES (X86)\WINDOWS KITS\10\LIB\10.0.18362.0\UM\X86\ADVAPI32.LIB
C:\USERS\MATTHEW\DOCUMENTS\UNI\YEAR 2\GAMEENGINE\VCPKG\INSTALLED\X86-WINDOWS\LIB\BULLET3COMMON.LIB
C:\USERS\MATTHEW\DOCUMENTS\UNI\YEAR 2\GAMEENGINE\VCPKG\INSTALLED\X86-WINDOWS\LIB\BULLETCOLLISION.LIB
C:\USERS\MATTHEW\DOCUMENTS\UNI\YEAR 2\GAMEENGINE\VCPKG\INSTALLED\X86-WINDOWS\LIB\BULLETDYNAMICS.LIB
C:\USERS\MATTHEW\DOCUMENTS\UNI\YEAR 2\GAMEENGINE\VCPKG\INSTALLED\X86-WINDOWS\LIB\BULLETINVERSEDYNAMICS.LIB
C:\USERS\MATTHEW\DOCUMENTS\UNI\YEAR 2\GAMEENGINE\VCPKG\INSTALLED\X86-WINDOWS\LIB\BULLETSOFTBODY.LIB
C:\USERS\MATTHEW\DOCUMENTS\UNI\YEAR 2\GAMEENGINE\VCPKG\INSTALLED\X86-WINDOWS\LIB\LINEARMATH.LIB
C:\USERS\MATTHEW\DOCUMENTS\UNI\YEAR 2\GAMEENGINE\OGRE3D_1-12_BASE\BUILD\SIMPLEGAME.DIR\RELWITHDEBINFO\PLAYER.OBJ
C:\USERS\MATTHEW\DOCUMENTS\UNI\YEAR 2\GAMEENGINE\OGRE3D_1-12_BASE\BUILD\SIMPLEGAME.DIR\RELWITHDEBINFO\GAME.OBJ
C:\USERS\MATTHEW\DOCUMENTS\UNI\YEAR 2\GAMEENGINE\OGRE3D_1-12_BASE\BUILD\SIMPLEGAME.DIR\RELWITHDEBINFO\MAIN.OBJ
C:\WINDOWS\SYSTEM32\TZRES.DLL
C:\WINDOWS\GLOBALIZATION\SORTING\SORTDEFAULT.NLS
C:\PROGRAM FILES (X86)\MICROSOFT VISUAL STUDIO\2017\COMMUNITY\VC\TOOLS\MSVC\14.16.27023\LIB\X86\MSVCPRT.LIB
C:\PROGRAM FILES (X86)\MICROSOFT VISUAL STUDIO\2017\COMMUNITY\VC\TOOLS\MSVC\14.16.27023\LIB\X86\MSVCRT.LIB
C:\PROGRAM FILES (X86)\MICROSOFT VISUAL STUDIO\2017\COMMUNITY\VC\TOOLS\MSVC\14.16.27023\LIB\X86\OLDNAMES.LIB
C:\PROGRAM FILES (X86)\MICROSOFT VISUAL STUDIO\2017\COMMUNITY\VC\TOOLS\MSVC\14.16.27023\LIB\X86\VCRUNTIME.LIB
C:\PROGRAM FILES (X86)\WINDOWS KITS\10\LIB\10.0.18362.0\UCRT\X86\UCRT.LIB
